; Engine configuration file.
; It's best edited using the editor UI and not directly,
; since the parameters that go here are not all obvious.
;
; Format:
;   [section] ; section goes between []
;   param=value ; assign values to parameters

config_version=3

[application]

config/name="GlobalgameJam"
run/main_scene="res://Scenes/Menu.tscn"
config/icon="res://icon.png"

[autoload]

SceneManager="*res://Scripts/SceneManager.gd"
EventsManager="*res://Scripts/events_manager.gd"
GameManager="*res://Scripts/game_manager.gd"

[display]

window/size/width=1920
window/size/height=1080
window/size/fullscreen=true
window/stretch/mode="2d"
window/stretch/aspect="keep"
window/stretch/shrink="1"

[rendering]

environment/default_clear_color=Color( 0, 0, 0, 1 )
environment/default_environment="res://default_env.tres"
