[gd_scene load_steps=2 format=2]

[ext_resource path="res://Scripts/response.gd" type="Script" id=1]

[node name="resp" type="TextureButton"]

anchor_left = 0.0
anchor_top = 0.0
anchor_right = 0.0
anchor_bottom = 0.0
margin_right = 80.0
margin_bottom = 44.0
rect_pivot_offset = Vector2( 0, 0 )
rect_clip_content = false
focus_mode = 2
mouse_filter = 0
mouse_default_cursor_shape = 0
size_flags_horizontal = 1
size_flags_vertical = 1
toggle_mode = false
enabled_focus_mode = 2
shortcut = null
group = null
script = ExtResource( 1 )
_sections_unfolded = [ "Rect", "Textures" ]

[connection signal="pressed" from="." to="." method="_on_resp_pressed"]


